@startuml
start
:Main loop;
:HW initialization;
:Init LoraWAN stack + timers;
:LoRaWAN join;

repeat
    :Wait for a pulse;
    :Process new pulse;
repeat while(forever)

detach

start
:Timer;

repeat
    if(new pulses) then(yes)
        :Send LoRaWAN message;
    else(no)
    endif
    :Sleep 10 minutes;

repeat while(forever)

@enduml